Dual y-Axis
…
With that said, there still are situations were dual y-axes are appropriate. This vignette will show you how to do this in R with ggplot2, despite the package authors disagreements.

Prepare data

 dual_y_axis_data.csv

# devtools::install_github("derekmichaelwright/agData")
library(agData) # Loads: tidyverse, ggpubr, ggbeeswarm, ggrepel
# Prep data
xx <- read.csv("dual_y_axis_data.csv") %>% 
  mutate(Date = as.Date(Date))
as_tibble(xx)

## # A tibble: 214 x 4
##    Date       Day.Length Soil.Temperature Air.Temperature
##    <date>          <dbl>            <dbl>           <dbl>
##  1 2016-11-29       9.38             5.56            8.56
##  2 2016-11-30       9.35             5.34            8.74
##  3 2016-12-01       9.33             4.65            8.75
##  4 2016-12-02       9.31             4.17            8.68
##  5 2016-12-03       9.29             3.53            8.99
##  6 2016-12-04       9.27             3.66           10.9 
##  7 2016-12-05       9.26             3.21           10.6 
##  8 2016-12-06       9.24             2.89            9.21
##  9 2016-12-07       9.22             2.96           11.0 
## 10 2016-12-08       9.21             3.02            9.90
## # ... with 204 more rows
…
