…
Data

Fisher, R. A. (1936) The use of multiple measurements in taxonomic problems. Annals of Eugenics. 7(II): 179–188.

Anderson, Edgar (1935) The irises of the Gaspe Peninsula. Bulletin of the American Iris Society. 59: 2–5.

# devtools::install_github("derekmichaelwright/agData")
library(agData) # Loads: tidyverse, ggpubr, ggbeeswarm, ggrepel
library(GGally) # ggpairs() 
library(FactoMineR) # PCA() & HCPC()
library(plotly) # plot_ly()
as_tibble(iris)

## # A tibble: 150 x 5
##    Sepal.Length Sepal.Width Petal.Length Petal.Width Species
##           <dbl>       <dbl>        <dbl>       <dbl> <fct>  
##  1          5.1         3.5          1.4         0.2 setosa 
##  2          4.9         3            1.4         0.2 setosa 
##  3          4.7         3.2          1.3         0.2 setosa 
##  4          4.6         3.1          1.5         0.2 setosa 
##  5          5           3.6          1.4         0.2 setosa 
##  6          5.4         3.9          1.7         0.4 setosa 
##  7          4.6         3.4          1.4         0.3 setosa 
##  8          5           3.4          1.5         0.2 setosa 
##  9          4.4         2.9          1.4         0.2 setosa 
## 10          4.9         3.1          1.5         0.1 setosa 
## # ... with 140 more rows
…
