…
DTF: Days from sowing to flower

DTM: Days from sowing to swollen pod

DTM: Days from sowing to maturity

RDTF: Rate of progress towards fowering

# Prep data
d1 <- read.csv("correlation_coefficients_data_1.csv") %>% 
  mutate(RDTF = 1 / DTF) # Rate of progress towards flowering
# Preview data
as_tibble(d1)

## # A tibble: 54 x 10
##    Entry Expt  MacroEnv             Rep T_mean P_mean   DTF   DTS   DTM   RDTF
##    <int> <chr> <chr>              <int>  <dbl>  <dbl> <int> <int> <int>  <dbl>
##  1    33 Ro16  Macroenvironment 1     1   17.2   16.2    45    62    96 0.0222
##  2    33 Ro16  Macroenvironment 1     2   17.2   16.2    44    64    96 0.0227
##  3    33 Ro16  Macroenvironment 1     3   17.2   16.2    44    61    92 0.0227
##  4    33 Ro17  Macroenvironment 1     1   17.5   16.4    38    60    82 0.0263
##  5    33 Ro17  Macroenvironment 1     2   17.5   16.4    39    57    80 0.0256
##  6    33 Ro17  Macroenvironment 1     3   17.5   16.4    39    57    77 0.0256
##  7    33 Ca16  Macroenvironment 1     1   16.7   15.9    44    65    95 0.0227
##  8    33 Ca16  Macroenvironment 1     2   16.7   15.9    45    62    94 0.0222
##  9    33 Ca16  Macroenvironment 1     3   16.7   15.9    45    63    95 0.0222
## 10    33 Ca17  Macroenvironment 1     1   15.7   16.1    44    64    83 0.0227
## # ... with 44 more rows
…
Expt: 3 Site-years

MacroEnv: 3 Macroenvironments

DTF: Days from sowing to flower

Predicted_DTF: Predicted values of DTF

# Prep data
d2 <- read.csv("correlation_coefficients_data_2.csv") %>%
  mutate(Expt = factor(Expt, levels = c("Ca16", "Ne16", "It16")))
# Preview data
as_tibble(d2)

## # A tibble: 972 x 5
##    Entry Expt  MacroEnv             DTF Predicted_DTF
##    <int> <fct> <chr>              <dbl>         <dbl>
##  1     1 Ca16  Macroenvironment 1  53.7          51.6
##  2     1 Ne16  Macroenvironment 2 123            98.0
##  3     1 It16  Macroenvironment 3 137.          145. 
##  4     2 Ca16  Macroenvironment 1  57.3          55.3
##  5     2 Ne16  Macroenvironment 2 124.           93.5
##  6     2 It16  Macroenvironment 3 128           137. 
##  7     3 Ca16  Macroenvironment 1  59            57.8
##  8     3 Ne16  Macroenvironment 2 122.           96.0
##  9     3 It16  Macroenvironment 3 134           142. 
## 10     4 Ca16  Macroenvironment 1  56            53.7
## # ... with 962 more rows
…
