Environmental Data Vignette
…
         Time = ifelse(is.na(Time) | Time == "", 
                       "12:00:00", as.character(Time)),
         Date = as.Date(Date),
         DateTime = as.POSIXct(paste(Date, Time), 
                               format = "%Y-%m-%d %H:%M:%OS"),
         Location = factor(Location, levels = locs),
         LoggerID = factor(LoggerID, levels = unique(.$LoggerID)) )
# Create a color palette
myCols <- c("darkgreen", "darkred", "coral3", "deeppink3", "darkcyan",
          "burlywood4", "darkslateblue", "darkmagenta", "darkgoldenrod3")
myCaption <- "\u00A9 derekmichaelwright.github.io/dblogr/ | Data: AGILE"
# View table
dd %>% as_tibble()

## # A tibble: 355,207 × 11
##    Location        Year Date       Time     LoggerID        Measurement Unit  Value DaysAfterPlanting Expt         DateTime           
##    <fct>          <int> <date>     <chr>    <fct>           <fct>       <fct> <dbl>             <int> <chr>        <dttm>             
##  1 Bardiya, Nepal  2016 2016-11-14 06:44:24 Weather Station Day Length  Hours  10.6                 0 Bardiya, Ne… 2016-11-14 06:44:24
##  2 Bardiya, Nepal  2016 2016-11-15 06:45:36 Weather Station Day Length  Hours  10.6                 1 Bardiya, Ne… 2016-11-15 06:45:36
##  3 Bardiya, Nepal  2016 2016-11-16 06:46:12 Weather Station Day Length  Hours  10.6                 2 Bardiya, Ne… 2016-11-16 06:46:12
##  4 Bardiya, Nepal  2016 2016-11-17 06:46:48 Weather Station Day Length  Hours  10.6                 3 Bardiya, Ne… 2016-11-17 06:46:48
##  5 Bardiya, Nepal  2016 2016-11-18 06:48:00 Weather Station Day Length  Hours  10.6                 4 Bardiya, Ne… 2016-11-18 06:48:00
##  6 Bardiya, Nepal  2016 2016-11-19 06:48:36 Weather Station Day Length  Hours  10.5                 5 Bardiya, Ne… 2016-11-19 06:48:36
##  7 Bardiya, Nepal  2016 2016-11-20 06:49:12 Weather Station Day Length  Hours  10.5                 6 Bardiya, Ne… 2016-11-20 06:49:12
##  8 Bardiya, Nepal  2016 2016-11-21 06:50:24 Weather Station Day Length  Hours  10.5                 7 Bardiya, Ne… 2016-11-21 06:50:24
##  9 Bardiya, Nepal  2016 2016-11-22 06:51:00 Weather Station Day Length  Hours  10.5                 8 Bardiya, Ne… 2016-11-22 06:51:00
## 10 Bardiya, Nepal  2016 2016-11-23 06:51:36 Weather Station Day Length  Hours  10.5                 9 Bardiya, Ne… 2016-11-23 06:51:36
## # ℹ 355,197 more rows
…
