…
Flatten the Curve

# Prep data
xx <- dd %>% filter(Date < "1919-01-11")
xx %>% 
  group_by(Area) %>% 
  summarise(Sum = sum(Value, na.rm = T)) %>% 
  arrange(Sum)

## # A tibble: 24 x 2
##    Area            Sum
##    <fct>         <dbl>
##  1 Minneapolis   13452
##  2 Atlanta       13506
##  3 Indianapolis  14117
##  4 Milwaukee     14976
##  5 St. Louis     18173
##  6 Seattle       18208
##  7 Chicago       19018
##  8 New York City 20333
##  9 St. Paul      20695
## 10 Dayton        21072
## # ... with 14 more rows
…
