…
```
## # A tibble: 355,207 x 11
##    Location       Year Date       Time     LoggerID      Measurement Unit  Value
##    <fct>         <int> <date>     <chr>    <fct>         <fct>       <fct> <dbl>
##  1 Bardiya, Nep~  2016 2016-11-14 06:44:24 Weather Stat~ Day Length  Hours  10.6
##  2 Bardiya, Nep~  2016 2016-11-15 06:45:36 Weather Stat~ Day Length  Hours  10.6
##  3 Bardiya, Nep~  2016 2016-11-16 06:46:12 Weather Stat~ Day Length  Hours  10.6
##  4 Bardiya, Nep~  2016 2016-11-17 06:46:48 Weather Stat~ Day Length  Hours  10.6
##  5 Bardiya, Nep~  2016 2016-11-18 06:48:00 Weather Stat~ Day Length  Hours  10.6
##  6 Bardiya, Nep~  2016 2016-11-19 06:48:36 Weather Stat~ Day Length  Hours  10.5
##  7 Bardiya, Nep~  2016 2016-11-20 06:49:12 Weather Stat~ Day Length  Hours  10.5
##  8 Bardiya, Nep~  2016 2016-11-21 06:50:24 Weather Stat~ Day Length  Hours  10.5
##  9 Bardiya, Nep~  2016 2016-11-22 06:51:00 Weather Stat~ Day Length  Hours  10.5
## 10 Bardiya, Nep~  2016 2016-11-23 06:51:36 Weather Stat~ Day Length  Hours  10.5
## # ... with 355,197 more rows, and 3 more variables: DaysAfterPlanting <int>,
## #   Expt <chr>, DateTime <dttm>
```
…
